﻿{
	"CFBundleName": "User Mode",
	"CFBundleShortVersionString": "19.1.0 (19r7)",
	"CFBundleGetInfoString": "User Mode 19.1.0 (19r7), 2023-03-02T00:00:00",
	"NSHumanReadableCopyright": "Copyright © 2023, Mac to Basics"
}